%YAML 1.1
%TAG !u! tag:unity3d.com,2011:
--- !u!21 &2100000
Material:
  serializedVersion: 8
  m_ObjectHideFlags: 0
  m_CorrespondingSourceObject: {fileID: 0}
  m_PrefabInstance: {fileID: 0}
  m_PrefabAsset: {fileID: 0}
  m_Name: Bangers SDF Material
  m_Shader: {fileID: 4800000, guid: 68e6db2ebdc24f95958faec2be5558d6, type: 3}
  m_Parent: {fileID: 0}
  m_ModifiedSerializedProperties: 0
  m_ValidKeywords: []
  m_InvalidKeywords: []
  m_LightmapFlags: 5
  m_EnableInstancingVariants: 0
  m_DoubleSidedGI: 0
  m_CustomRenderQueue: -1
  stringTagMap: {}
  disabledShaderPasses: []
  m_LockedProperties: 
  m_SavedProperties:
    serializedVersion: 3
    m_TexEnvs:
    - _BumpMap:
        m_Texture: {fileID: 0}
        m_Scale: {x: 1, y: 1}
        m_Offset: {x: 0, y: 0}
    - _Cube:
        m_Texture: {fileID: 0}
        m_Scale: {x: 1, y: 1}
        m_Offset: {x: 0, y: 0}
    - _FaceTex:
        m_Texture: {fileID: 0}
        m_Scale: {x: 1, y: 1}
        m_Offset: {x: 0, y: 0}
    - _MainTex:
        m_Texture: {fileID: 28584486757587946}
        m_Scale: {x: 1, y: 1}
        m_Offset: {x: 0, y: 0}
    - _OutlineTex:
        m_Texture: {fileID: 0}
        m_Scale: {x: 1, y: 1}
        m_Offset: {x: 0, y: 0}
    m_Ints: []
    m_Floats:
    - _Ambient: 0.5
    - _Bevel: 0.5
    - _BevelClamp: 0
    - _BevelOffset: 0
    - _BevelRoundness: 0
    - _BevelWidth: 0
    - _BumpFace: 0
    - _BumpOutline: 0
    - _ColorMask: 15
    - _CullMode: 0
    - _Diffuse: 0.5
    - _FaceDilate: 0
    - _FaceUVSpeedX: 0
    - _FaceUVSpeedY: 0
    - _GlowInner: 0.05
    - _GlowOffset: 0
    - _GlowOuter: 0.05
    - _GlowPower: 0.75
    - _GradientScale: 11
    - _LightAngle: 3.1416
    - _MaskSoftnessX: 0
    - _MaskSoftnessY: 0
    - _OutlineSoftness: 0
    - _OutlineUVSpeedX: 0
    - _OutlineUVSpeedY: 0
    - _OutlineWidth: 0
    - _PerspectiveFilter: 0.875
    - _Reflectivity: 10
    - _ScaleRatioA: 0.90909094
    - _ScaleRatioB: 0.79545456
    - _ScaleRatioC: 0.79545456
    - _ScaleX: 1
    - _ScaleY: 1
    - _ShaderFlags: 0
    - _Sharpness: 0
    - _SpecularPower: 2
    - _Stencil: 0
    - _StencilComp: 8
    - _StencilOp: 0
    - _StencilReadMask: 255
    - _StencilWriteMask: 255
    - _TextureHeight: 1024
    - _TextureWidth: 1024
    - _UnderlayDilate: 0
    - _UnderlayOffsetX: 0
    - _UnderlayOffsetY: 0
    - _UnderlaySoftness: 0
    - _VertexOffsetX: 0
    - _VertexOffsetY: 0
    - _WeightBold: 0.5
    - _WeightNormal: 0
    m_Colors:
    - _ClipRect: {r: -32767, g: -32767, b: 32767, a: 32767}
    - _EnvMatrixRotation: {r: 0, g: 0, b: 0, a: 0}
    - _FaceColor: {r: 0.9528302, g: 0.85542005, b: 0, a: 1}
    - _GlowColor: {r: 0, g: 1, b: 0, a: 0.5}
    - _MaskCoord: {r: 0, g: 0, b: 32767, a: 32767}
    - _OutlineColor: {r: 0, g: 0, b: 0, a: 1}
    - _ReflectFaceColor: {r: 0, g: 0, b: 0, a: 1}
    - _ReflectOutlineColor: {r: 0, g: 0, b: 0, a: 1}
    - _SpecularColor: {r: 1, g: 1, b: 1, a: 1}
    - _UnderlayColor: {r: 0, g: 0, b: 0, a: 0.5}
  m_BuildTextureStacks: []
--- !u!114 &11400000
MonoBehaviour:
  m_ObjectHideFlags: 0
  m_CorrespondingSourceObject: {fileID: 0}
  m_PrefabInstance: {fileID: 0}
  m_PrefabAsset: {fileID: 0}
  m_GameObject: {fileID: 0}
  m_Enabled: 1
  m_EditorHideFlags: 0
  m_Script: {fileID: 11500000, guid: 71c1514a6bd24e1e882cebbe1904ce04, type: 3}
  m_Name: Bangers SDF
  m_EditorClassIdentifier: 
  hashCode: 2134875903
  material: {fileID: 2100000}
  materialHashCode: -2079879681
  m_Version: 1.1.0
  m_SourceFontFileGUID: 5dd49b3eacc540408c98eee0de38e0f1
  m_SourceFontFile_EditorRef: {fileID: 12800000, guid: 5dd49b3eacc540408c98eee0de38e0f1, type: 3}
  m_SourceFontFile: {fileID: 12800000, guid: 5dd49b3eacc540408c98eee0de38e0f1, type: 3}
  m_AtlasPopulationMode: 1
  m_FaceInfo:
    m_FaceIndex: 0
    m_FamilyName: Bangers
    m_StyleName: Regular
    m_PointSize: 144
    m_Scale: 1
    m_UnitsPerEM: 0
    m_LineHeight: 153.14062
    m_AscentLine: 127.125
    m_CapLine: 107
    m_MeanLine: 106
    m_Baseline: 0
    m_DescentLine: -26.015625
    m_SuperscriptOffset: 127.125
    m_SuperscriptSize: 0.5
    m_SubscriptOffset: -26.015625
    m_SubscriptSize: 0.5
    m_UnderlineOffset: 0
    m_UnderlineThickness: 0
    m_StrikethroughOffset: 42.4
    m_StrikethroughThickness: 0
    m_TabWidth: 28
  m_GlyphTable: []
  m_CharacterTable: []
  m_AtlasTextures:
  - {fileID: 28584486757587946}
  m_AtlasTextureIndex: 0
  m_IsMultiAtlasTexturesEnabled: 0
  m_ClearDynamicDataOnBuild: 1
  m_UsedGlyphRects: []
  m_FreeGlyphRects:
  - m_X: 0
    m_Y: 0
    m_Width: 1023
    m_Height: 1023
  m_fontInfo:
    Name: Bangers
    PointSize: 137
    Scale: 1
    CharacterCount: 95
    LineHeight: 145.6875
    Baseline: 0
    Ascender: 120.9375
    CapHeight: 101.5625
    Descender: -24.75
    CenterLine: 0
    SuperscriptOffset: 120.9375
    SubscriptOffset: 0
    SubSize: 0.5
    Underline: -12.22
    UnderlineThickness: 5
    strikethrough: 40.625
    strikethroughThickness: 0
    TabWidth: 342.5
    Padding: 10
    AtlasWidth: 1024
    AtlasHeight: 1024
  atlas: {fileID: 0}
  m_AtlasWidth: 1024
  m_AtlasHeight: 1024
  m_AtlasPadding: 10
  m_AtlasRenderMode: 4165
  m_glyphInfoList: []
  m_KerningTable:
    kerningPairs: []
  m_FontFeatureTable:
    m_GlyphPairAdjustmentRecords: []
  fallbackFontAssets: []
  m_FallbackFontAssetTable: []
  m_CreationSettings:
    sourceFontFileName: 
    sourceFontFileGUID: 5dd49b3eacc540408c98eee0de38e0f1
    pointSizeSamplingMode: 1
    pointSize: 144
    padding: 10
    packingMode: 4
    atlasWidth: 1024
    atlasHeight: 1024
    characterSetSelectionMode: 6
    characterSequence: 
    referencedFontAssetGUID: 125cb55b44b24c4393181402bc6200e6
    referencedTextAssetGUID: 
    fontStyle: 0
    fontStyleModifier: 0
    renderMode: 4165
    includeFontFeatures: 0
  m_FontWeightTable:
  - regularTypeface: {fileID: 0}
    italicTypeface: {fileID: 0}
  - regularTypeface: {fileID: 0}
    italicTypeface: {fileID: 0}
  - regularTypeface: {fileID: 0}
    italicTypeface: {fileID: 0}
  - regularTypeface: {fileID: 0}
    italicTypeface: {fileID: 0}
  - regularTypeface: {fileID: 0}
    italicTypeface: {fileID: 0}
  - regularTypeface: {fileID: 0}
    italicTypeface: {fileID: 0}
  - regularTypeface: {fileID: 0}
    italicTypeface: {fileID: 0}
  - regularTypeface: {fileID: 0}
    italicTypeface: {fileID: 0}
  - regularTypeface: {fileID: 0}
    italicTypeface: {fileID: 0}
  - regularTypeface: {fileID: 0}
    italicTypeface: {fileID: 0}
  fontWeights:
  - regularTypeface: {fileID: 0}
    italicTypeface: {fileID: 0}
  - regularTypeface: {fileID: 0}
    italicTypeface: {fileID: 0}
  - regularTypeface: {fileID: 0}
    italicTypeface: {fileID: 0}
  - regularTypeface: {fileID: 0}
    italicTypeface: {fileID: 0}
  - regularTypeface: {fileID: 0}
    italicTypeface: {fileID: 0}
  - regularTypeface: {fileID: 0}
    italicTypeface: {fileID: 0}
  - regularTypeface: {fileID: 0}
    italicTypeface: {fileID: 0}
  - regularTypeface: {fileID: 0}
    italicTypeface: {fileID: 0}
  - regularTypeface: {fileID: 0}
    italicTypeface: {fileID: 0}
  - regularTypeface: {fileID: 0}
    italicTypeface: {fileID: 0}
  normalStyle: 0
  normalSpacingOffset: 0
  boldStyle: 0.75
  boldSpacing: 7
  italicStyle: 35
  tabSize: 10
--- !u!28 &28584486757587946
Texture2D:
  m_ObjectHideFlags: 0
  m_CorrespondingSourceObject: {fileID: 0}
  m_PrefabInstance: {fileID: 0}
  m_PrefabAsset: {fileID: 0}
  m_Name: Bangers SDF Atlas
  m_ImageContentsHash:
    serializedVersion: 2
    Hash: 00000000000000000000000000000000
  m_ForcedFallbackFormat: 4
  m_DownscaleFallback: 0
  m_IsAlphaChannelOptional: 0
  serializedVersion: 2
  m_Width: 0
  m_Height: 0
  m_CompleteImageSize: 0
  m_MipsStripped: 0
  m_TextureFormat: 1
  m_MipCount: 1
  m_IsReadable: 1
  m_IsPreProcessed: 0
  m_IgnoreMipmapLimit: 0
  m_MipmapLimitGroupName: 
  m_StreamingMipmaps: 0
  m_StreamingMipmapsPriority: 0
  m_VTOnly: 0
  m_AlphaIsTransparency: 0
  m_ImageCount: 1
  m_TextureDimension: 2
  m_TextureSettings:
    serializedVersion: 2
    m_FilterMode: 1
    m_Aniso: 1
    m_MipBias: 0
    m_WrapU: 0
    m_WrapV: 0
    m_WrapW: 0
  m_LightmapFormat: 0
  m_ColorSpace: 0
  m_PlatformBlob: 
  image data: 0
  _typelessdata: 
  m_StreamData:
    serializedVersion: 2
    offset: 0
    size: 0
    path: 
