%YAML 1.1
%TAG !u! tag:unity3d.com,2011:
--- !u!74 &7400000
AnimationClip:
  m_ObjectHideFlags: 0
  m_CorrespondingSourceObject: {fileID: 0}
  m_PrefabInstance: {fileID: 0}
  m_PrefabAsset: {fileID: 0}
  m_Name: Atk-fire-knight
  serializedVersion: 7
  m_Legacy: 0
  m_Compressed: 0
  m_UseHighQualityCurve: 1
  m_RotationCurves: []
  m_CompressedRotationCurves: []
  m_EulerCurves: []
  m_PositionCurves: []
  m_ScaleCurves: []
  m_FloatCurves: []
  m_PPtrCurves:
  - serializedVersion: 2
    curve:
    - time: 0
      value: {fileID: 1776987540, guid: 407eafc6f5824214f8479c4880c91ff6, type: 3}
    - time: 0.1
      value: {fileID: -884088203, guid: d3c9546072ceb7244a4d9f866b8f0eed, type: 3}
    - time: 0.2
      value: {fileID: -1607587213, guid: a74f13c6801ac104c9b60c1e012c6eb5, type: 3}
    - time: 0.3
      value: {fileID: 493650200, guid: 0c2550f87b0d15c41b9bd868e89c41dd, type: 3}
    - time: 0.4
      value: {fileID: 1860218220, guid: f2cd6f499b193b345b7d262a3dcbd71c, type: 3}
    - time: 0.48333332
      value: {fileID: -1691857374, guid: d11f8d684a6e0854aa252a27ed1522e6, type: 3}
    - time: 0.6
      value: {fileID: 2127308402, guid: 23c096ac6ceb3b7459d77d7efb9ae466, type: 3}
    - time: 0.7
      value: {fileID: -1110305219, guid: 2fa1c8cf4f29001409e4ef74b21c2f10, type: 3}
    - time: 0.8
      value: {fileID: 1646567954, guid: 9d1447518788dde488ab8a27e8384208, type: 3}
    - time: 0.9
      value: {fileID: -339676302, guid: 922b37fd3f7a03d4e8802b494ed93ad6, type: 3}
    - time: 1
      value: {fileID: 1091738392, guid: 44f81c8021fb8314286ac520bf6c1b38, type: 3}
    attribute: m_Sprite
    path: 
    classID: 212
    script: {fileID: 0}
    flags: 2
  m_SampleRate: 60
  m_WrapMode: 0
  m_Bounds:
    m_Center: {x: 0, y: 0, z: 0}
    m_Extent: {x: 0, y: 0, z: 0}
  m_ClipBindingConstant:
    genericBindings:
    - serializedVersion: 2
      path: 0
      attribute: 0
      script: {fileID: 0}
      typeID: 212
      customType: 23
      isPPtrCurve: 1
      isIntCurve: 0
      isSerializeReferenceCurve: 0
    pptrCurveMapping:
    - {fileID: 1776987540, guid: 407eafc6f5824214f8479c4880c91ff6, type: 3}
    - {fileID: -884088203, guid: d3c9546072ceb7244a4d9f866b8f0eed, type: 3}
    - {fileID: -1607587213, guid: a74f13c6801ac104c9b60c1e012c6eb5, type: 3}
    - {fileID: 493650200, guid: 0c2550f87b0d15c41b9bd868e89c41dd, type: 3}
    - {fileID: 1860218220, guid: f2cd6f499b193b345b7d262a3dcbd71c, type: 3}
    - {fileID: -1691857374, guid: d11f8d684a6e0854aa252a27ed1522e6, type: 3}
    - {fileID: 2127308402, guid: 23c096ac6ceb3b7459d77d7efb9ae466, type: 3}
    - {fileID: -1110305219, guid: 2fa1c8cf4f29001409e4ef74b21c2f10, type: 3}
    - {fileID: 1646567954, guid: 9d1447518788dde488ab8a27e8384208, type: 3}
    - {fileID: -339676302, guid: 922b37fd3f7a03d4e8802b494ed93ad6, type: 3}
    - {fileID: 1091738392, guid: 44f81c8021fb8314286ac520bf6c1b38, type: 3}
  m_AnimationClipSettings:
    serializedVersion: 2
    m_AdditiveReferencePoseClip: {fileID: 0}
    m_AdditiveReferencePoseTime: 0
    m_StartTime: 0
    m_StopTime: 1.0166667
    m_OrientationOffsetY: 0
    m_Level: 0
    m_CycleOffset: 0
    m_HasAdditiveReferencePose: 0
    m_LoopTime: 1
    m_LoopBlend: 0
    m_LoopBlendOrientation: 0
    m_LoopBlendPositionY: 0
    m_LoopBlendPositionXZ: 0
    m_KeepOriginalOrientation: 0
    m_KeepOriginalPositionY: 1
    m_KeepOriginalPositionXZ: 0
    m_HeightFromFeet: 0
    m_Mirror: 0
  m_EditorCurves: []
  m_EulerEditorCurves: []
  m_HasGenericRootTransform: 0
  m_HasMotionFloatCurves: 0
  m_Events:
  - time: 0.3
    functionName: PlayAttackSound
    data: 
    objectReferenceParameter: {fileID: 0}
    floatParameter: 0
    intParameter: 0
    messageOptions: 0
