%YAML 1.1
%TAG !u! tag:unity3d.com,2011:
--- !u!74 &7400000
AnimationClip:
  m_ObjectHideFlags: 0
  m_CorrespondingSourceObject: {fileID: 0}
  m_PrefabInstance: {fileID: 0}
  m_PrefabAsset: {fileID: 0}
  m_Name: elf-death
  serializedVersion: 7
  m_Legacy: 0
  m_Compressed: 0
  m_UseHighQualityCurve: 1
  m_RotationCurves: []
  m_CompressedRotationCurves: []
  m_EulerCurves: []
  m_PositionCurves: []
  m_ScaleCurves: []
  m_FloatCurves: []
  m_PPtrCurves:
  - serializedVersion: 2
    curve:
    - time: 0
      value: {fileID: -2951760211177139853, guid: 00cb5be06a56fc545b1b65216d0864e4, type: 3}
    - time: 0.083333336
      value: {fileID: -1168617161624849536, guid: 00cb5be06a56fc545b1b65216d0864e4, type: 3}
    - time: 0.16666667
      value: {fileID: -3059142508767278494, guid: 00cb5be06a56fc545b1b65216d0864e4, type: 3}
    - time: 0.25
      value: {fileID: 7252392321002709814, guid: 00cb5be06a56fc545b1b65216d0864e4, type: 3}
    - time: 0.33333334
      value: {fileID: 962502528917700259, guid: 00cb5be06a56fc545b1b65216d0864e4, type: 3}
    - time: 0.41666666
      value: {fileID: -263219899049711600, guid: 00cb5be06a56fc545b1b65216d0864e4, type: 3}
    - time: 0.5
      value: {fileID: -7561531733539559221, guid: 00cb5be06a56fc545b1b65216d0864e4, type: 3}
    - time: 0.5833333
      value: {fileID: -6489406638006825833, guid: 00cb5be06a56fc545b1b65216d0864e4, type: 3}
    - time: 0.6666667
      value: {fileID: 5909399372125445037, guid: 00cb5be06a56fc545b1b65216d0864e4, type: 3}
    - time: 0.75
      value: {fileID: -347128574402959188, guid: 00cb5be06a56fc545b1b65216d0864e4, type: 3}
    - time: 0.8333333
      value: {fileID: -3316731764760504694, guid: 00cb5be06a56fc545b1b65216d0864e4, type: 3}
    - time: 0.9166667
      value: {fileID: -5903102628809148380, guid: 00cb5be06a56fc545b1b65216d0864e4, type: 3}
    - time: 1
      value: {fileID: -2908934394278811144, guid: 00cb5be06a56fc545b1b65216d0864e4, type: 3}
    - time: 1.0833334
      value: {fileID: -4938945870349892150, guid: 00cb5be06a56fc545b1b65216d0864e4, type: 3}
    - time: 1.1666666
      value: {fileID: -2710028118708306852, guid: 00cb5be06a56fc545b1b65216d0864e4, type: 3}
    - time: 1.25
      value: {fileID: -3264127820960562134, guid: 00cb5be06a56fc545b1b65216d0864e4, type: 3}
    - time: 1.3333334
      value: {fileID: -1813981460988335978, guid: 00cb5be06a56fc545b1b65216d0864e4, type: 3}
    - time: 1.4166666
      value: {fileID: -7721167725070577995, guid: 00cb5be06a56fc545b1b65216d0864e4, type: 3}
    attribute: m_Sprite
    path: 
    classID: 212
    script: {fileID: 0}
    flags: 2
  m_SampleRate: 12
  m_WrapMode: 0
  m_Bounds:
    m_Center: {x: 0, y: 0, z: 0}
    m_Extent: {x: 0, y: 0, z: 0}
  m_ClipBindingConstant:
    genericBindings:
    - serializedVersion: 2
      path: 0
      attribute: 0
      script: {fileID: 0}
      typeID: 212
      customType: 23
      isPPtrCurve: 1
      isIntCurve: 0
      isSerializeReferenceCurve: 0
    pptrCurveMapping:
    - {fileID: -2951760211177139853, guid: 00cb5be06a56fc545b1b65216d0864e4, type: 3}
    - {fileID: -1168617161624849536, guid: 00cb5be06a56fc545b1b65216d0864e4, type: 3}
    - {fileID: -3059142508767278494, guid: 00cb5be06a56fc545b1b65216d0864e4, type: 3}
    - {fileID: 7252392321002709814, guid: 00cb5be06a56fc545b1b65216d0864e4, type: 3}
    - {fileID: 962502528917700259, guid: 00cb5be06a56fc545b1b65216d0864e4, type: 3}
    - {fileID: -263219899049711600, guid: 00cb5be06a56fc545b1b65216d0864e4, type: 3}
    - {fileID: -7561531733539559221, guid: 00cb5be06a56fc545b1b65216d0864e4, type: 3}
    - {fileID: -6489406638006825833, guid: 00cb5be06a56fc545b1b65216d0864e4, type: 3}
    - {fileID: 5909399372125445037, guid: 00cb5be06a56fc545b1b65216d0864e4, type: 3}
    - {fileID: -347128574402959188, guid: 00cb5be06a56fc545b1b65216d0864e4, type: 3}
    - {fileID: -3316731764760504694, guid: 00cb5be06a56fc545b1b65216d0864e4, type: 3}
    - {fileID: -5903102628809148380, guid: 00cb5be06a56fc545b1b65216d0864e4, type: 3}
    - {fileID: -2908934394278811144, guid: 00cb5be06a56fc545b1b65216d0864e4, type: 3}
    - {fileID: -4938945870349892150, guid: 00cb5be06a56fc545b1b65216d0864e4, type: 3}
    - {fileID: -2710028118708306852, guid: 00cb5be06a56fc545b1b65216d0864e4, type: 3}
    - {fileID: -3264127820960562134, guid: 00cb5be06a56fc545b1b65216d0864e4, type: 3}
    - {fileID: -1813981460988335978, guid: 00cb5be06a56fc545b1b65216d0864e4, type: 3}
    - {fileID: -7721167725070577995, guid: 00cb5be06a56fc545b1b65216d0864e4, type: 3}
  m_AnimationClipSettings:
    serializedVersion: 2
    m_AdditiveReferencePoseClip: {fileID: 0}
    m_AdditiveReferencePoseTime: 0
    m_StartTime: 0
    m_StopTime: 1.5
    m_OrientationOffsetY: 0
    m_Level: 0
    m_CycleOffset: 0
    m_HasAdditiveReferencePose: 0
    m_LoopTime: 1
    m_LoopBlend: 0
    m_LoopBlendOrientation: 0
    m_LoopBlendPositionY: 0
    m_LoopBlendPositionXZ: 0
    m_KeepOriginalOrientation: 0
    m_KeepOriginalPositionY: 1
    m_KeepOriginalPositionXZ: 0
    m_HeightFromFeet: 0
    m_Mirror: 0
  m_EditorCurves: []
  m_EulerEditorCurves: []
  m_HasGenericRootTransform: 0
  m_HasMotionFloatCurves: 0
  m_Events: []
